{
    "database": {
        "dbUser": "root",
        "host": "localhost",
        "port": 33060,
        "schema": "mysqlx-graphql-blog"
    },
    "server": {
        "host": "localhost",
        "port": 3000
    }
}
